%YAML 1.1
%TAG !u! tag:unity3d.com,2011:
--- !u!1045 &1
EditorBuildSettings:
  m_ObjectHideFlags: 0
  serializedVersion: 2
  m_Scenes:
  - enabled: 1
    path: Assets/Scenes/MainMenu.unity
    guid: 5b4f364177ef22a46ab96ac7eb070dfb
  - enabled: 1
    path: Assets/Scenes/Stage.unity
    guid: 1ef32e153001e0f47a06167a0f79750f
  - enabled: 1
    path: Assets/Scenes/Stage1.unity
    guid: 3cea10a3e0f80114cb10350b4ad7e137
  - enabled: 1
    path: Assets/Scenes/Stage2.unity
    guid: 13a7fd6c41b07bd4c863113efb5b85af
  m_configObjects: {}
